{
  "description": "Example: List tasks with filtering and pagination",
  "request": {
    "method": "GET",
    "url": "http://localhost:8000/api/v1/tasks?status=pending&limit=10&offset=0&sort_by=created_at&sort_order=desc",
    "headers": {
      "Authorization": "Bearer eyJhbGciOiJIUzI1NiIsInR5cCI6IkpXVCJ9..."
    }
  },
  "response": {
    "status": 200,
    "headers": {
      "X-Request-ID": "550e8400-e29b-41d4-a716-446655440001",
      "X-RateLimit-Limit": "100",
      "X-RateLimit-Remaining": "98",
      "X-RateLimit-Reset": "1699999999"
    },
    "body": {
      "tasks": [
        {
          "id": 123,
          "skill_name": "pair-programming",
          "schedule_cron": "0 9 * * 1-5",
          "next_run_at": "2025-11-09T09:00:00Z",
          "params": {
            "mode": "driver",
            "language": "python"
          },
          "status": "pending",
          "created_at": "2025-11-08T10:30:00Z",
          "updated_at": "2025-11-08T10:30:00Z",
          "user_id": "user_12345"
        },
        {
          "id": 124,
          "skill_name": "code-review-assistant",
          "schedule_cron": "0 17 * * 1-5",
          "next_run_at": "2025-11-08T17:00:00Z",
          "params": {
            "pr_number": 42,
            "focus": "security"
          },
          "status": "pending",
          "created_at": "2025-11-08T09:15:00Z",
          "updated_at": "2025-11-08T09:15:00Z",
          "user_id": "user_12345"
        }
      ],
      "total": 42,
      "limit": 10,
      "offset": 0,
      "has_more": true
    }
  },
  "query_parameters": {
    "status": "Filter by status (pending, running, completed, failed, disabled)",
    "skill_name": "Filter by exact skill name",
    "limit": "Results per page (1-100, default: 20)",
    "offset": "Pagination offset (default: 0)",
    "sort_by": "Sort field (created_at, next_run_at, updated_at)",
    "sort_order": "Sort direction (asc, desc)"
  }
}
